{"header":{
    "label":"Francine <b>WANG</b><br/>",
    "cv_title":"Enseignante de Chinois Mandarin",
    "personal_data":"Née le 27 septembre 1995<br/>Tel. 06 15 56 02 31<br/>Francine@163.com<br/>Nationalité Chinoise<br/>Titulaire du permis B"
},
"left_side":{
    "DIPLÔMES & FORMATIONS":[
        "<b>2020</b>     Master en Traduction Sino-Française à l'Univerité du Yunnan",
        "<b>2016</b>     License de français généraliste à l'Univerité Normale du Henan",
        "<b>2012</b>     Baccalauréat littéraire au Lycée du comté de Sui"
    ],
    "EXPERIENCES PROFESSIONNELLES":[
        "<b>2020</b> Enseignante FLE à l'Université normale du Huainan",
        "<b>2019</b> Assistante marketing à Shanxiang éducation",
        "<b>2018</b> Professeure assistante en langue Chinoise dans plusieurs Lycées à Versailles",
        "<b>2017</b> Interprète/ assistante de gestion à Moderntrading Co., ltd",
        "<b>2016</b> Commis au commerce extérieur à Ningbo dealer well Co., ltd"
    ]
},
"rigth_side":{
    "EXPERIENCES UNIVERSITAIRES":[
        "2017 - 2018 Membre d'une association étudiante",
        "Chargée des documents administratifs",
        "Participation suivie à l'encadrement d'activitées culturelles et sportives"
    ],
    "COMPÉTENCES":[
        "<b>LANGUES</b>",
        "Chinois langue maternelle",
        "Français courant",
        "Anglais Courant",
        "<b>INFORMATIQUE</b>",
        "Maîtrise du Pack Office (Word, Excel, Powerpoint)",
        "<b>PEDAGOGIE</b>",
        "Certificat d'enseignement et de pédagogie chinois",
        "Expériences diverses d'enseignement, en groupe ou individuelles"
    ],
    "CENTRES D'INTÉRÊTS":[
        "Lecture",
        "Natation",
        "Cinéphile amatrice",
        "Voyages et découvertes culturelles"
    ]
}
}

